FRAME 10 TIMES
  _         _.-~-._                 __                          
-~█~-._ _.-~███████~-._..--~~--._.-~██~~--..__                _.
████_.-~███████████████~-._█_.-~██████████████~~--..__  ___.-~██
_.-~█.███.███.███.███.███.█~-._██.███.███.███.███.███.~~--..__██
.█.█.█.█.█.█.█.█.█.█.█.█.█.█.█.~-._.█.█.█.█.█.█.█.█.█.█.█.█.█.~~
----....----~~~~~~~~----....________:█:█:█:█--------~~~~~~~~~~~~
::::::::::::::::::::::::::::::::::::~~~~----::::________::::::::
█:█:/\█:█:█:█:█/\:█:█:█/\:█:█:█:/\█:█:█:/\█:█:█:/\█:█:█:█:/\█:█:
\██/,`\██/\█/\/,`\█/\//,`\█/\██/,`\█/\█/,`\\█/\/,`\/\/\/\/,`\/\/
\█:█:█:█:/\█:█:█:█:/\█:█:█:█:█/\:█:█:█/\:█:█:█:/\█:█:█:/\█:█:█:/
`\/\/\/\/█'\/\/\██/█`\██/\█/\/,`\█/\//,`\█/\██/,`\█/\█/,`\\█/\/█
█,:/█`\:'██,:/█`\:'██,:/█`\█'/,`\`█`'/,`\`█`\'/,`\`█`'/,`\`\█:'█
██\`██'/'███\`██'/'███\`,`\`'/█`\`█`'/█`\`██\'/█`\`,`'/,`\`\`/'█
██`:,█:,████`:█`:,████`:,█,`:'██,:,`:'██,:,`,:'██,:,█:'██,:,:,██
██`\,`/,████`\,`/,████`\,█,`/'██,\,`/'██,\,`,/'██,\,`/'██,\,/███
██`\`'/,██,█`\`'/,███,`\`','/'██,\`'/',█,\`''/',█,\`'/',██\/',█,
i`ii::'i'ii`i`::'''ii```::'ii'ii``::'iii``::'''ii``::''ii`i'i''i
|█||||█|█||█|█||███||███||█||█||██||█|||██||███||██||██||█|█|██|
!_~:!!.,_!!_,.!!.,_!!_.,!!.~~_!!_,!!._!!_.!!,._!!_.!!,_!!_~.,._!
:█:█:█:█:█:█:█:█:█:█:█:█:█:█:█:█:█:█:█:█:█:█:█:█:█:█:█:█:█:█:█:█
██:██:██:██:██:██:██:██:██:██:██:██:██:██:██:██:██:██:██:██:██:█
█:████:████:████:████:████:████:████:████:████:████:████:████:██
████████████████████████████████████████████████████████████████
████████████████████████████████████████████████████████████████
████████████████████████████████████████████████████████████████
████████████████████████████████████████████████████████████████
████████████████████████████████████████████████████████████████
████████████████████████████████████████████████████████████████
████████████████████████████████████████████████████████████████
████████████████████████████████████████████████████████████████
████████████████████████████████████████████████████████████████
████████████████████████████████████████████████████████████████
