FRAME 2 TIMES
 _____ 
▕-----▏
▕     ▏
▕     ▏
 ¯¯¯¯¯ 
FRAME 4 TIMES
._-_-_.
 =-=-= 
|     |
▕     ▏
'-=-=-`
FRAME 8 TIMES
..·.·..
 :·:·: 
:     :
:     :
'·:·:·`
FRAME 16 TIMES
. · · .
 : : : 
:      
      :
' : : `
FRAME 1000 TIMES
       
       
       
       
       
