TILE topleft DIR
       <
       <
       <
/\/\/\/\
TILE top DIR
>      <
>      <
>      <
/\/\/\/\
TILE topalone DIR
        
        
        
/\/\/\/\
TILE topright DIR
>       
>       
>       
/\/\/\/\
TILE left DIR
\/\/\/\/
       <
       <
/\/\/\/\
TILE leftalone DIR
       <
       <
       <
       <
TILE center DIR
        
        
        
        
TILE centeralone DIR
\/\/\/\/
        
        
        
TILE centerxbridge DIR
>      <
>      <
>      <
>      <
TILE centerybridge DIR
\/\/\/\/
        
        
/\/\/\/\
TILE right DIR
\/\/\/\/
>       
>       
/\/\/\/\
TILE rightalone DIR
>       
>       
>       
>       
TILE bottomleft DIR
\/\/\/\/
       <
       <
       <
TILE bottom DIR
\/\/\/\/
>      <
>      <
>      <
TILE bottomalone DIR
\/\/\/\/
      
        
        
TILE bottomright DIR
\/\/\/\/
>       
>       
>       
