TILE topleft DIR
{~°~:"^~
(█_█████
:██:████
(██████.
TILE top DIR
^~"~~°~:
██████.█
█:██████
████_███
TILE topalone DIR
{"°^~:~}
(█_██.█:
(██████)
(█:████)
TILE topright DIR
~^~°~:"}
███████)
██:█.██)
█_█████:
TILE left DIR
(█_█████
(██:████
:████.██
(███████
TILE leftalone DIR
{:~"^~°~
:█.████_
(████:██
(_._._._
TILE center DIR
███_████
█████.██
█:██████
████████
TILE centeralone DIR
{~°:"~^}
(██.█_█)
:███:██:
(_._._.)
TILE centerxbridge DIR
":~^~~°~
█_:█████
██████.█
._._._._
TILE centerybridge DIR
(████_█:
:█.████)
(████:█)
(██████)
TILE right DIR
███████)
█:█████)
█_███.█)
███████:
TILE rightalone DIR
°~~":^~}
█.██:██)
█████_█:
._._._.)
TILE bottomleft DIR
{█_█████
:█████:█
(██.████
(_._._._
TILE bottom DIR
████.███
█:████_█
████████
._._._._
TILE bottomalone DIR
{_█████}
(████.█:
:█:████)
(_._._.)
TILE bottomright DIR
█████_█}
███:███:
█.█████)
._._._.)
