FRAME 10 TIMES
         /\         
        /'█\        
       :/'█\`       
       /█/██\       
      /█'█`l█\      
     '/█l:█\█\`     
     /██;███:█\     
    '/█/██'`██\:    
    /█':███l█\█\    
   :/█l'█'██`██\`   
   //'█████`█:\█\   
  '/██'l█:█\████\:  
  /█'/██l█████l█\`  
  /████'███`█`█\█\  
 '/'█l█:████l█:█\\: 
 /█/█'/██'██\█`█`█\ 
:/█'█'███l███`███:\`
/██:██'█'██`██:█`█\:
//'█/l███'l█`█ll█`█\
'//','/'/:\\:\`\:\\`
  ''''  i:█l `````  
        |██!        
        |l█|        
        !█li        
        |:█|        
        |█:!        
        !:l!        
       /'(█L\       
