░░░░░░░░░░░░░░░░░░░░░░░░░░░░░░░░░░░░░░░░__.....------....__░░░░░░░░░░░░░░░░░░░░░░░░░░░░░░░░░░░░░░░░░░░░░
░░░░░░░░░░░░░░░░░░░░░░░░░░░░░__..--~~~~~:  :  :  :  :  :  : ~~~---...__░░░░░░░░░░░░░░░░░░░░░░░░░░░░░░░░░
░░░░░░░░░░░░░░░░░░░░░░__...-~: : : : : : : : : : : : : : : : : : . : : ~~~~--..._░░░░░░░░░░░░░░░░░░░░░░░
░░░░░░░░░░░__.....---~ ::::: :::::: :.:: ::: :::::.: :::::.:.:.. ::.:::: .:: : : ~~---....__░░░░░░░░░░░░
__..--~~~~~:  :  : : ::: .:::::.: :::.:.:: :::.:.::.:..:.:.::.:.::::..:.::.::::: :. ::  :  : ~~~---...__
