░░░░__░░░░░░░_░░_░░░░░░░░░░░░░░░░░░░░░░░░░░░░░░░░░░░░░░░░░░░░░░░
░░░<__`-_░.-' `' )░░░_♫-/)-/)-♫-♫-/)--..--_░░░░░░░░░░░░░░░░░░░░░
░░░░░░`<.`---_   `.-") ) ) ) )_)_)(__   PDX"`-░░░░░░░░░░░░░░░░░░
░░░░░░░░/¯:--_¯)   )-\ \ \ \ \░░░░/::(__("-~) )`-_░░░░░░░░░░░░░░
░░░.--.=-'_-  ¯   (:::\ \░\ \░)░░/::/░░░/  /░`._) `.░░░░░░░░░░░░
░,' 0()  '@=·  (   ):::) )░) )░░(:(:)░░/  /░░░░░`._)`-.░░░░░░░░░
(_.--._______   ) (:(░░`.░/ /░░░░\\:\░(_)_)░░░░░░░░`._)`._░░░░░░
░\\-╥╥╥╥...╥-`./ )//░░"\ \░"░░░░░░\\:\( ( )░░░░░░░░░░░`-.)¯`-'=>
░░`-_________---':░░░░░(  )░░░░░░░░\\:\\  \░░░░░░░░░░░░░░░¯¯¯¯░░
░░░░░░░░░░░░░/Jnnn░░░░░/ /░░░░░░░░/Jnnn)\\ \░░░░░░░░░░░░░░░░░░░░
░░░░░░░░%%%%%%%%%%%%%%///%%%%%%%%%%%%%%%%\\ \%%%%%%%%%%%%%░░░░░░
░░░░░░░░░░░░░%░%░%%/Jnnn%%%%%%%%%%%%%%%%/Jnnn)%%░░░░░░░░░░░░░░░░
