 ..                                            .. ··        ·· ..                                   
   ··            ..  ··      ··  ..          ··                  ··         ..  ··          ··  ..  
·''  .. ··     ··                  ··          ''···........···''  .. ··  ··                      ··
   ··            ''····......····''                              ··         ''····..........····''  
     ''···........···''                                            ''·········''                    
                                                                                                    
                                                                                                    
                                                                        
       .-:.  .=+=.   .=+=. .::-.                                     .-:.  .=+=.   .=+=. .::-.      
      :=/:\::-=+=-:::-=+=-::/:\=:              \  |  /              :=/:\::-=+=-:::-=+=-::/:\=:     
      :+=:`:`:=+=:':`:=+=:':':=+:            ⧹    _    ⧸            :+=:`:`:=+=:':`:=+=:':':=+:     
      `!'-.-.`\+/'.-.`\+/'.-.-`!'           ⟍   ⧸   ⧹   ⟋           `!'-.-.`\+/'.-.`\+/'.-.-`!'     
      .:=/-=::o8o::=::o8o::=-\=:.           -  l     l  -           .:=/-=::o8o::=::o8o::=-\=:.     
      :=i=-: °888° :-°888° :-=i=:           ⟋   ⧹ _ ⧸   ⟍           :=i=-: °888° :-°888° :-=i=:     
      :=+=:'  |-|  `:=|-|  `:=+=:            ⧸         ⧹            :=+=:'  |-|  `:=|-|  `:=+=:     
       `!'    |-|     |-|    `!'               /  |  \               `!'    |-|     |-|    `!'      
              |-|     |-|                                                   |-|     |-|             
---....__     |-|     |-|___.....___                __.....------....__     |-|     |-|___......._  
  :  :  : ~~~-|-|.__..|-|:: ::: : . ~~-.___..--~~~~~:  :  :  :  :  :  : ~~~-|-|.__..|-|:: ::: : . ~~
 : : : : : : :|-|: :::|-|::.: ::.:__...-~: : : : : : : : : : : : : : : : : :|-|: :::|-|::.: ::.:__..
_: :::::.:.:..|-|.::::|-|.....---~ ::::: :::__.....------....__: :::::.:.:..|-|.::::|-|.....---~ :::
: ~~~---...__.|-|:.::_|-| :  : : __..--~~~~~:  :  :  :  :  :  : ~~~---...__.|-|:.::_|-| :  : : __..-
~:≈~≈≈≈~:≈≈~≈≈|=|≈~≈~:|=|≈~:≈~≈≈≈~:≈~≈≈≈~:≈≈~≈≈~ -  -≈- :≈~≈≈≈~:≈~≈≈≈~:≈≈~≈≈|=|≈~≈~:|=|≈~:≈~≈≈≈~:≈~≈
~≈≈≈~:~≈≈≈~:≈~|=|~:~≈≈|=|≈≈~:≈~≈≈≈~:~≈≈≈~:≈~≈≈≈=:_ - =:~≈≈≈~:≈~≈≈≈~:~≈≈≈~:≈~|=|~:~≈≈|=|≈≈~:≈~≈≈≈~:~≈
≈~≈≈≈≈~≈≈ ≈≈~≈|=|~≈~≈≈|=|≈~≈≈≈≈~≈≈≈≈~≈≈ ≈≈~≈≈≈-~ -  -≈- ≈≈~≈≈≈≈~≈≈≈≈~≈≈ ≈≈~≈|=|~≈~≈≈|=|≈~≈≈≈≈~≈≈≈≈~≈
~≈≈≈~:~≈≈≈~:≈~|=|~:~≈≈|=|≈≈~:≈~≈≈≈~:~≈≈≈~:≈~≈≈≈=:_ - =:~≈≈≈~:≈~≈≈≈~:~≈≈≈~:≈~|=|~:~≈≈|=|≈≈~:≈~≈≈≈~:~≈
~:≈ ≈~:≈ ≈≈~:≈|=|:≈:≈ |=|~:≈ ≈~:≈ ≈~:≈ ≈≈~:≈ ≈~:-  _-= ≈≈~:≈ ≈~:≈ ≈~:≈ ≈≈~:≈|=|:≈:≈ |=|~:≈ ≈~:≈ ≈~:≈
≈≈~≈≈≈≈~≈≈≈...!:!.....!:!...≈≈≈≈~≈≈≈≈~≈≈≈≈≈~≈≈≈=:_ - =:~≈≈≈~≈≈≈≈~≈≈≈≈~≈≈≈...!:!.....!:!...≈≈≈≈~≈≈adl
::::::::::::::::::::::::::::::::::::::::::::::::::::::::::::::::::::::::::::::::::::::::::::::::::::
::::::::::::::::::::::::::::::::::::::::::::::::::::::::::::::::::::::::::::::::::::::::::::::::::::
----------------------------------------------------------------------------------------------------
                                                 __o                                                
               -----                           _T\-L7                        -----                  
                                              (-)/⟋(-)                                              
----------------------------------------------------------------------------------------------------
::::::::::::::::::::::::::::::::::::::::::::::::::::::::::::::::::::::::::::::::::::::::::::::::::::
::::::::::::::::::::::::::::::::::::::::::::::::::::::::::::::::::::::::::::::::::::::::::::::::::::
