                                        l                                       
  BAR-s.-SEINE                         (|)                                      
  Ecole Primaire                      .-^-.                                     
  Superieure Professionelle           '-A-'                                     
  Entree Principale                     T                                       
                                    .-. | .-.                                   
                                   / @_)|(_@ \                                  
                                   l    |    l                                  
                                    \   |   /                                   
                                   ._'. | .'_.                                  
                                     =:\|/:=                                    
                            .-~~~-. ( .\|/. ) .-~~~-.                           
                          J/       \ ~' | `~ /       \L                         
                        .'l   .-.  l:--'|`--:l  .-.   l`.                       
                       /  !   '.__.'O  |||  O`.__.'   !  \                      
                     .'    \        V  /|\  V        /    `.                    
                    /       '._     _.' | `._     _.'       \                   
        _...-------/--------_nn=====n---I---n=====nn_--------\-------..._       
      .'          /_ (@--~`=nnn========T:T========nnn=`~--@) _\          `.     
 .-. l   .--. ( .'\@:-nn-==oo8l8olo8l8\l:l/8l8olo8l8oo==-nn-:@\`. ) .--.   l .-.
l ._)l  (  n \|/.-'n==ol87~l  l  l  l  |:|  l  l  l  l~98lo==n`-.\|/ n  )  l(_ l
|     \  '-' /J'_o8lol` l  |  |  |  |  |:|  |  |  |  |  l `lol8o_`L\ `-'  /    |
|     _:nn--'_o8l~l  |  |  |  |  |  |  |:|  |  |  |  |  |  |  l~l8o_`--nn:_    |
|_.--`_.nnno7~~l  |  |  |  |  |  |  |  |:|  |  |  |  |  |  |  |  l~~9onnn._`--.|
l_.nnolo8l8~l  |  |  |  |  |  |  |  |  |:|  |  |  |  |  |  |  |  |  l~8l8olonn.l
||ol7~l~~l  |  |  |  |  |  |  |  |  |  |:|  |  |  |  |  |  |  |  |  |  l~~l~adl|
