.--------------------------------------------------.
| ` n ',`  )       `· .-. ·'   (_n  n`  n   `  ' , |
|n   n .-~~       ·· ( (   ··   (_ n · n' ._ )!// .|
|  )-'~     .--.   · .`-'. ·   .' `-'-._· \ V  / `n|
| `-.    _ (::: )  _'  :  `   (:::..     > `. |`'-'|
|_n  )·.':`.'`. `-::`.    .  ·   ' ( :::( n'! !n`.·|
| `-'·  `·' · : ··..  '    )    .    `-. `·-: `.'::|
|   .n·n.   · ··          (b   (  ·  .  "·.'`. i:: |
|^^~ n,  ^~n_ .   .·-~~~·. ` b. `·  (    ~^·n| |-~^|
| . .n. 'n       ;·   _.  \    ·. (  )   ` @ ! !'n |
|··...     ).   i`  .'.-.. i  `èo  ·' .   \|/   \_`|
|,.` ``···'     (\   / °#) !   d*b .'  )   ^.'.-._=|
|.,````,,. `    .'   `·-' .^  J8%%Db d'.'  / /  :: |
|""Y"":.,.'.   (     _.   i   d%##%%8b(   i /. |`::|
|: |:  """":-   `-·=:.-   `.  98%l`6%8D.   i^^n.^U{|
|  !  !__--:       _)   .   \  98%\ \BB.  `:\|/~^ \|
|--'~~'         .-~;  .-   ) `.  ~9) iP       "·.._|
|   ..         ('.-i.('·.-'    :·-'  !    ·:::·    |
| ·::::·        ~' !··`~' .     !   /           ·:·|
|    `:·            \·:::·¡     / .'         __.-. |
|                    `.·::_\   i-'        .-'   ::\|
|:::·     ·:          _> .7 `i  \   ·    /      :::|
|      ..          .·=._  )  |_ _=.    8/        ::|
|  ·  /  \ O o     `'-'-'~   `-`-`'     `--....____|
|     `··' ·                           ·O       adl|
·--------------------------------------------------·
