    _
   'ö`
   i~i'
   ‼¯‼
    _
   'ö`
   i~i'
  ·~¯~·

    _
  _'ö`_

  _
:`().._
 ¯i _ .`.
  !! !!`~
  _
:`().._
 ¯i _ .`.
  !< !<`~
  _
:`().._
 ¯i _ .`.
  <! <!`~
  _
:`()._.'· 
 ¯: _ .' 
 ·~~ ~·; 
      _
  _..()';
.'. _ i¯
~'!! !!
      _
  _..()';
.'. _ i¯
~'>! >!
      _
  _..()';
.'. _ i¯
~'!> !>
      _
·`._.()';
 `. _ :¯
 :·~ ~~·
     adl
