   :   :   :   :   l   :   :   :   :   |
...:...:...:...:...l...:...:...:...:...|
   :   :   :   :   l   :   :   :   :   |
...:...:...:...:...l...:...:...:...:...|
   :   :   :   :   l   :   :   :   :   |
...:...:...:...:...l...:...:...:...:...|
   :   :   :   :   l   :   :   :   :   |
...:...:...:...:...l...:...:...:...:...|
   :   :   :   :   l   :   :   :   :   |
_ _:_ _:_ _:_ _:_ _l_ _:_ _:_ _:_ _:_ _|
   :   :   :   :   l   :   :   :   :   |
...:...:...:...:...l...:...:...:...:...|
   :   :   :   :   l   :   :   :   :   |
...:...:...:...:...l...:...:...:...:...|
   :   :   :   :   l   :   :   :   :   |
...:...:...:...:...l...:...:...:...:...|
   :   :   :   :   l   :   :   :   :   |
...:...:...:...:...l...:...:...:...:...|
   :   :   :   :   l   :   :   :   :   |
_______________________________________|
