_|_ 
·-· 
 ¯
        ##
        ##
        ##
        ## 
        ##      
°8##############8° 
                
  °8##########8°
            
     °8####8°

       .-.
       | |
       | |
       | |
 ______| |______  
l_______________l 
   ___________  
  l___________l 
     _______  
    l_______l 
