  ·                                      ·                          ·           
               ·                                                               ·
                                         .-.          ·                         
                             ·          ( (                    -=-              
       ·                                 `-'                                    
                    ·                                                     ·     
  _         _.-~-._             ·   __          ·           ·                   
-~ ~-._ _.-~       ~-._..--~~--._.-~  ~~--..__                                _.
    _.-~               ~-._ _.-~              ~~--..__  ___...--~~~--..._ _.-~  
_.-~ .   .   .   .   .   . ~-._  .   .   .   .   .   .~~--..__        _.-~ .   .
. . . . . . . . . . . . . . . .~-._. . . . . . . . . . . . . .~~--..__......_.-~
----....----~~~~~~~~----....________: : : : --------~~~~~~~~~~~~~~~~------------
::::::::::::::::::::::::::::::::::::~~~~----::::________::::::::::::::::::::::::
: : : : : : : : : : : : : : : : : : : : : : : : : : : : : : : : : : : : : : : : 
  :  :  :  :  :  :  :  :  :  :  :  :  :  :  :  :  :  :  :  :  :  :  :  :  :  :  
 :    :    :    :    :    :    :    :    :    :    :    :    :    :    :    :   
                                                                                
                                                                                
                                                                                
                                                                                
                                                                                
                                                                                
                                                                                
                                                                                
                                                                                
                                                                                
                                                                                
                                                                                
                                                                                
                                                                                
