.------- C8o:.·:%o8b ------------------------------.
|      · °L:·:8%%8°'           \_  _/\/   __/\__/  |
| *     ·  C::q%D   n-n.    /\_/ \_/   __/  _/ /   |
|  .-.      ~°d8C  (.--.\       _/        _/   \_  |
| ( (   *    _ C*   V:·V\`·._  / \_  _   / \   /\  |
|  `-'   _..·/  CLo  \::·i|\·i    \  \·.._     \   |
|       /:_:<    `_._ )-.!·¯·.\   /   >:_ :   _/   |
| *   .':' `:\  .;·__:. /·:: !_`.    /.' `.:.  \   |
|    /:'    `:i `-'<\_</·:· /  `'   i.'    `:\    .|
|   /;    .  !!    `:=:_,  ¡      · !!   · · `:.   |
|  .i   · . i \\  *   |-·. |   *   // i o · db ii  |
|  || · ·.i.| .\`._ _ !::· !  _ _.'/.  *:b d:P  !  |
|  i! ·.::··!·· `-·=.~)_  · \~.=·-' ··! °qd::b:' i |
| /(  ::'`{>._<} ._ )'·-     `(_._ {>_.<} :db:8p ! |
| )! :/  ({>\:(-' .7:·_..._  ·` L ` ):/<}) %%8D  ( |
| \!·'    `~·:::-'_·.'·.·. `.  `.`-'::·~' C%%8P !/ |
|  '   *  .   `v·~;/:::·:··:·`.  \~v' *  °qiNP° `  |
|  /\      _.---.'i:::::·:·:·: i  `.    ·   i\   /\|
|\/::\/\ .:::::/:(::::::::·.··.·i   \~-·.__.' )\/::|
|:::_.-~/ :· .::':::::::··:·:· ·!,   `..__._.'-.:::|
|::'  ·(`._ /:·'  \·:··:·:·.···/·    ·:\-~'  .  `::|
|/  8 · \::~\      `:_··:·.·_.:/:.     / · .   Oo \|
|( · o   `·:_> - '  < ~--=:=-~ >:·` - <      °o   )|
|/`._  ·   <::'\_/\_7--~~~   · L_/\_/`.:>  ·   _.'\|
|/ / ~-._   '--' `'   ·    .     `' `--`   _.-~ \ \|
`--------------------------------------------------'
