The French governement *_..·--·.._boast of being a * * _..·-·.._"non-religious" 
country. Calls * * * *.'   ·   ·  `~~·.Christmas *.·~~'   ·  ·  `.shopping * * 
"republican shopping"/··   :   ·   · ·:\..._...../·   ·   : :  ·  \in this  * * 
covid era and wants.'   · .-~-.· · :·   !||:~-:-!  ·   ·· .--. · · `.to forbid  
Muslim mothers to i ··  .'* * *;· :  ·  /::::::=\·  · · .'* * `. ·  ·ibring * * 
children to school!   ·i * * .'·! ·   .'::||:|:)=`.·   ·!_ * * *i ·  ! while *  
wearing a veil. *i··  ! * *.':':=`-.-'::(:|(:|:|:|)`-.-'=::-. * *!  · i * * * * 
"Republican  * * !  ·i * */:'':·' ``·((:(::|:(:|)::\:\`:``:v:\ * *i·· !shopping" 
wasn't a official \··!_, /:':·          `·``·`·``·```·::'`.:v:i ._! ·/name, but  
it was the way  * *`._.'i':.   :                        .  ::v! `._.'politicians
characterized last * * i::'   :    ·     ......    ·     :  :v:iyear's duty to  
shop during Christmas.*i/:.    :                         :   i:|As id we had  * 
to keep buying more to |::·     :       ···...···       :    !:|save the French 
economy in this * * * *|/:·          ·              ·     . /:v|pandemic  * * * 
situation. * * * * * * !:/·      .:           .          : i:3:! * * * * * * *  
This year christmas * . !:/:  :  ._.__    ,  (     __.._   !3:/is mostly about  
every right-wing * * *\`.\C:   .:º\%%%=:.:    `·::=%%%/º:.(::/.parties throwing 
up every day their  * *i \ic:    ·:·o·.:)!.   .!:.·o·:·    ii /hatred of  * * * 
foreigners 5 hours per !('!::     ¯:=:: · \   / ·::=::     |!!day on the TV in  
anticipation of the * ( ('(::  ·  :  :   :)   (:  :    ·   |/!* * _..---.._ * * 
elections. * * * * * * ! n(i:      :    .:!   !:.   :      ! )_.-'    |    `-. *
* * *           * * * * \  !            ::'   `::         ( /'       -+-      `.
 * *  Vv   VvV           `-'i  :   ·  .·(::   ::)·.  ·  : :i      __  _   _     
* * .V\ \`/ \V  <- for      |   :    /   `¯:-:¯'   \   .'  | |V| |_  |_| |_| \ /
 *  `\/\v|' /',    woke     !   : .·' ·`-.  U   .-· `..'  :! | | |__ | \ | \  | 
*  ..`\\V||/V/'V   children `.   :   (:%%:`-..-'%%:)  :  ./ _      _     _  ___ 
  .V\\V/|\/'///'V            |:   `   `:%( :::(%::'  :  ./ |  |_| |_| | |_   | _ 
* `\ /\ ||\V|/\/'   * * * * *! `.    ·  `\\:::(/'      :'  |_ | | | \ |  _|  |  
  V/\\\\\,||||/V   * * * * ./ )  ·..      ~):::)     ::/:         _   _         
* ' `/\\|\|V//VV  * * * *.:( i     `::    /:::/   .::::|:\   |V| |_| |_   | |   
 *   V,\\||\||/  * * * *:::/  `.      `·.(:::/  .·:::::·\::. | | | |  _|  . .  ,
* *  `\,|\||/|' * *_..·:::i     `·.  `.  (:::)-'':::·'   |:::·._           _.-'*
 * *  `\|||||/'V.:::::::::|        `·. `.(::( . :·'      |:::::::·._    _.' * * 
*_......||,|||/'::::::::::|           `·.(::( .'         |:::::::::::·-:__ * * *
:::::::`|||||/':::::::::::! ·        .'~:`\::\`.         !::::::::::::::::::··--
:::::::.|||,||'::::::::::i   :     .:::::::\::\:`.     ·i:::-------.::::::::::::
::::::::\|||||,::::::::::|    :  .'  \::::::):(:/ `.  : |::| __ {~},cocorico!::: 
::::::::`|,/|/'::::::::::|     \'     \:::::)://    `/  !::|(  )/·>|::::::::::::
::::::::`||||,:::::::::::|             )···(:((        i:::|(_\V_/V|::::::*:::::
Republic:/||/|:Krampus:::|            /:::::\/:\       |:::!___LL__!:::::*:*:adl
