 ______________________________________________________________________________________________________________________ 
|                                                                                                                      |
|       .           .               .       .           .           .           .           .           .           .  |
|                              . \  |  / .                                                                             |
| .           .           .     `  ___  '         .           .           .           .           .           .        | 
|          .           .      `· .'   `. ·'    .           .         ..--..  .     .           .           .           |
| .           .     .        ·-- |     | --·      .           .    ,/: ·..:i          .           .           .     .  |
|    .     .           .      ,· `.___.' ·.    .     .     .      ( ·_`---'!       .      .-.  .     .     .     .     |
| .     .     .     .     .     ,       .               .         i:-.~---~:)   .     .  (   )    .     .           .  |
|    .     .     .     .       ' /  |  \ `     .     .     .     i i..¯~~~;;       .    .'   `-.     .     .     .     |
|    __.-.    .           .         '       .     .     .     .  ! !::::.'/     .      (        )      .-.       _.-.  |
|  .'     )      .     .     .     .     .           .     .    i   `-·' i   .       .-.`       `-.   (   `.   .'    ) |
| (     __`-.       .     .   __.-.   .     .     .             !        !      .   (              )   `---'_ (   .-'  |
|  `--.'     )   .     .    .'     )     .     .     .     .   i        !    .     .'     )        `-.    .' `.`   )   |
|    (       `-.   ._      (       `-.      .     .     .     /        i  .       (       `-.--------'   (      .-'    |
|  .-.`         ) (  `.  .-.`         )        .        __..-'         !     .  .-.`         )    .    .-.`      )     |
| (             `-.`--' (             `-.   .       _.-~                \      (             `-.      (          `-.-. |
|  `--------------'      `--------------'      .  .'                     `.     `--------------'  .    `----------/    |
|    _  .     .     .     .     .           .    .'  ___________________ __`.   .     .     ._     .-.          .'     |
|   /~\       _.._     .     .     .-.   .       ! .'                  .:__`.\     .     . (  `.  (   `.  .-.  /       |
| .' . `. _.'~ --~`.    .'`.    . (   `.    .   i /                   /  (-` )i .     .     `--' .'     `/   `'        |
| :.:._.-'.   .   . \  / .  \      `---' .      !i                   i----`-' !    .     .      (      .' .   .   .    |
| :.:.:. . . . . . . `'. . . `._               i |                   |       i     _.-._    |>   `----/. . . . . . . . |
| :::::::.:.:.:.:.:.:.:.:.:.:.:::.-------------!·| The treasure lie  |·······!---ºº·····ºº-/|\------.':.:.:.:.:.:.:.:. |
| ºööööoooo::::::ooooöööööººººººººº~~         i  ! somewhere between !      i    ¯¯¯===¯¯¯/_|_\ ~~ºººººººººººöööööoo:: |
| --===¯¯¯========¯¯¯¯¯----==== --- ¯         ! i love and          i       !            .--'--,  ¯¯¯¯¯¯¯---¯========= |
|  ¯-=-¯¯¯¯--=====-¯¯¯¯¯-==-.   .   .   .   .i  | friendship,       |      i .   .   .    `==='  .   .   .   .   .---- |
| . . . . . . . . . . . . . . . . . . . .  : !  |                   |      !. . . . . . . ¯¯¯-- . . . . . . . . . . .  |
|  : . . : . . : . . : . . : . . : . . : . .i  .|                   | .   i: . : . . : . . : . . : . . : . . : . . : . |
|  .:. .:. .:. .:. .:. .:. .:. .:. .:. .:...!.  !                   !.  . !.. .:. .:. .:. .:. .:. .:. .:. .:. .:. .:.  |
| :..:..:..:..:..:..:..:..:..:..:..:..:..::i. .i Buried deep down  i. . .i:..:..:..:..:..:..:..:..:..:..:..:..:..:..:. |
| :.:.:.:.:.:.:.:.:.:.:.:.:.:.:.:.:.:.:.:.:!...| by knights        |.....!:.:.:.:.:.:.:.:.:.:.:.:.:.:.:.:.:.:.:.:.:.:. |
| ::::::::::::::::::::::::::::::::::::::::i:_..| and kings,        |__::i::::::::::::::::::::::::::::::::::::::::::::: |
| %%%%%%%%%%%%%%%%%%%%%%%%%%%%%%%%%%%%%%%%!:_  |                   |  ~:!%%%%%%%%%%%%%%%%%%%%%%%%%%%%%%%%%%%%%%%%%%%%% |
| ~~~~~--------------==============------i---~ i- - . . . . . . - -i ~-i---------=======================--------~~~~~~ |
| ~~~~~~~¯¯¯¯¯¯¯¯¯¯¯¯¯¯             °    !     !                   !   !  °                         ¯¯¯¯¯¯¯¯¯¯~~~~~~~~ |
|    o                 .       o        i     i We need to fight  i   i               o    .   °                       |
|              °                        !     | their words and   |   !      .                                 o       |
|                                      i      | their machines    |  i           °                                     |
|                o         °           !      | for it,           |  !                                      °          |
|     O                       O       i       !                   ! i                 o                                |
| °                                   !      i                   i  !      O                     O    .                |
|                                    i       |                   | i                                           O       |
|                                    !       ! adl               ! !                                                   |
|      .            .        °      i       i                   i i     .          .                               .   |
|             °                     !  ___..|                   | !                          O         o               |
|                                  i.·=----'------------,-.     !i            O           °                    .       |
|  .  .  .  .  .  .  .  .  .  .  . !(                  (--'    / !.  .  .  .  .  .  .  .  .  .  .  .  .  .  .  .  .  . |
| .. .. .. .. .. .. .. .. .. .. .. \ `..________________:.___.: i.. .. .. .. .. .. .. .. .. .. .. .. .. .. .. .. .. .. |
| ..................................`.  .  .  .  .  .  .  .  . :'..................................................... |
| ..:..:..:..:..:..:..:..:..:..:..:..:~-. .. .. .. .. .. .. ...':..:..:..:..:..:..:..:..:..:..:..:..:..:..:..:..:..:.. |
| .::.::.::.::.::.::.::.::.::.::.::.:::::`~-..__.........._.-':::.::.::.::.::.::.::.::.::.::.::.::.::.::.::.::.::.::.: |
| ::::::::::::::::::::::::::::::::::::::::::::::~~-----~~':::::::::::::::::::::::::::::::::::::::::::::::::::::::::::: |
| ::%::%::%::%::%::%::%::%::%::%::%::%::%::%::%::%::%::%::%::%::%::%::%::%::%::%::%::%::%::%::%::%::%::%::%::%::%::%:: |
| :%%:%%:%%:%%:%%:%%:%%:%%:%%:%%:%%:%%:%%:%%:%%:%%:%%:%%:%%:%%:%%:%%:%%:%%:%%:%%:%%:%%:%%:%%:%%:%%:%%:%%:%%:%%:%%:%%:% |
| %%%%%%%%%%%%%%%%%%%%%%%%%%%%%%%%%%%%%%%%%%%%%%%%%%%%%%%%%%%%%%%%%%%%%%%%%%%%%%%%%%%%%%%%%%%%%%%%%%%%%%%%%%%%%%%%%%%% |
| %%#%%#%%#%%#%%#%%#%%#%%#%%#%%#%%#%%#%%#%%#%%#%%#%%#%%#%%#%%#%%#%%#%%#%%#%%#%%#%%#%%#%%#%%#%%#%%#%%#%%#%%#%%#%%#%%#%% |
| %##%##%##%##%##%##%##%##%##%##%##%##%##%##%##%##%##%##%##%##%##%##%##%##%##%##%##%##%##%##%##%##%##%##%##%##%##%##%# |
| #################################################################################################################### |
|______________________________________________________________________________________________________________________|
