░L7░___________________░░░░
░||/:::/:_:\::::/:_:\::\░░░
░|/::::||_||::::||_||:::\░░
░/:::::::::::::::::::::::\░
l=========================l
i'''''''''''''''''''''''''i
| |¯|  |¯|  |¯|  |¯|  |¯| |
|  ¯    ¯    ¯    ¯    ¯  |
|                         |
| |¯|  |¯|  |¯|  |¯|  |¯| |
| | |  | |  | |  | |  | | |
|l=======================l|
|                         |
|   |¯¯¯|  |¯¯¯|  |¯¯¯|   |
|   |___|  |___|  |___|   |
|                         |
| l=====================l |
| || |:||  .·'·|:'· ...|| |
| || | ||  .'. | .:    || |
l=l-----l===============l=l
