░░░░░░░░░░░░░░░░░░░░░░░░░░░░░░░░░░░░░░░░░░░░░░░░░░░░░░░░░░░░░░░░░░░░░░░░░░░__.....------....__░░░░░░░░░░░░░░░░░░░░░░░░░░░░░░░░░░░░░░░░░░░░░░░░░░░░░░░░░░░░░░░░░░░░░░░░░░░░░░░░░░░░░░░
░░░░░░░░░░░░░░░░░░░░░░░░░░░░░░░░░░░░░░░░░░░░░░░░░░░░░░░░░░░░░░░░__..--~~~~~:  :  :  :  :  :  : ~~~---...__░░░░░░░░░░░░░░░░░░░░░░░░░░░░░░░░░░░░░░░░░░░░░░░░░░░░░░░░░░░░░░░░░░░░░░░░░░░
░░░░░░░░░░░░░░░░░░░░░░░░░░░░░░░░░░░░░░░░░░░░░░░░░░░░░░░░░__...-~: : : : : : : : : : : : : : : : : : . : : ~~~~--..._░░░░░░░░░░░░░░░░░░░░░░░░░░░░░░░░░░░░░░░░░░░░░░░░░░░░░░░░░░░░░░░░░
░░░░░░░░░░░░░░░░░░░░░░░░░░░░░░░░░░░░░░░░░░░░░░__.....---~ ::::: :::::: :.:: ::: :::::.: :::::.:.:.. ::.:::: .:: : : ~~---....__░░░░░░░░░░░░░░░░░░░░░░░░░░░░░░░░░░░░░░░░░░░░░░░░░░░░░░
░░░░░░░░░░░░░░░░░░░░░░░░░░░░░░░░░░░__..--~~~~~:  :  : : ::: .:::::.: :::.:.:: :::.:.::.:..:.:.::.:.::::..:.::.::::: :. ::  :  : ~~~---...__░░░░░░░░░░░░░░░░░░░░░░░░░░░░░░░░░░░░░░░░░░
░░░░░░░░░░░░░░░░░░░░░░░░░░░░__...-.: : : : . : : :.: : ::::.: ..: ::::...:.:.::.::.:.::.:: .:::: .::.: ::::::.:.:::.::.... : . :.:.: : : : ~~~~--..._░░░░░░░░░░░░░░░░░░░░░░░░░░░░░░░░
░░░░░░░░░░░░░░░░░░░░░░░_.-~:: ::. ::. :::.:::.::.:::.::::.::::::::::.::.:::.:..:::: ::::.:.:::::::::::::::::::: .:.::::::::.::.: ::: :::::.: ::: : . ~~-.__░░░░░░░░░░░░░░░░░░░░░░░░░░
░░░░░░░░░░░░__..--~~~~~  :: ::.:::: :.:.::: ::.::::::.:.::::::::.:.:::.::::::::::::::::::::::::::::::::::: :::::::::::::: .::::::::::. :.:::.: ::.:: .: : : ~~~---...__░░░░░░░░░░░░░░
░░░░░__...-~: : . : . ::: .:.::: :::::::::::::::::::::::::::::::::::::::::::::::::::::::::::::::::::::::::::::::::::::::::::::::::::::.:::::::..:::::::: : : : : : : : ~~~~--..._░░░░
...-~:::::::..::::::::.:::::: :::::::::::::::::::::::::::::::::::::::::::::::::::::::::::::::::::::::::::::::::::::::::::::::::::::::::::::::::::::::::::: : ::: ::::::: ::: : : ~~-.
