░░░░░░░░░░░░░░░░░░░_░░░░░░░░░░░░░░░░░░░
░░░░░░░░░░░░░░░░░_JJL_░░░░░░░░░░░░░░░░░
░░░░░░░░░░░░░░░_JJJL_LL_░░░░░░░░░░░░░░░
░░░░░░░░░░░░░_JJ%JL_:L:LL_░░░░░░░░░░░░░
░░░░░░░░░░░_JJ%JJ__:L:_L:LL_░░░░░░░░░░░
░░░░░░░░░_JJ%J%J_:L_l:L_:L:LL_░░░░░░░░░
░░░░░░░_JJ%J%%JL_l_:L_l:L:_L:LL_░░░░░░░
░░░░░_JJ%J%%JJ_l:L_l_:L_l:L_:L:LL_░░░░░
░░░_JJ%J%%J%JL__l_:L_l_:L_l:L:_L:LL_░░░
░_JJ%J%%J%%J__:L__l_:L_l_:L_l:L_:L:LL_░
JJ%J%%J%%JJ__l__:L__l_:L_l_:Ll_:L:_L:LL
