`.              `.              `.              `.              `.              `.              `.              `.              `.              `.              `.              
  `.              `.              `.              `.              `.              `.              `.              `.              `.              `.              `.            
    `.              `.              `.              `.              `.              `.              `.              `.              `.              `.              `.          
......:...............:...............:...............:...............:...............:...............:...............:...............:...............:...............:.........
        `.              `.              `.              `.              `.              `.              `.              `.              `.              `.              `.      
          `.              `.              `.              `.              `.              `.              `.              `.              `.              `.              `.    
            `.              `.              `.              `.              `.              `.              `.              `.              `.              `.              `.  
..............:...............:...............:...............:...............:...............:...............:...............:...............:...............:...............:.
`.              `.              `.              `.              `.              `.              `.              `.              `.              `.              `.              
  `.              `.              `.              `.              `.              `.              `.              `.              `.              `.              `.            
    `.              `.              `.              `.              `.              `.              `.              `.              `.              `.              `.          
......:...............:...............:...............:...............:...............:...............:...............:...............:...............:...............:.........
        `.              `.              `.              `.              `.              `.              `.              `.              `.              `.              `.      
          `.              `.              `.              `.              `.              `.              `.              `.              `.              `.              `.    
            `.              `.              `.              `.              `.              `.              `.              `.              `.              `.              `.  
..............:...............:...............:...............:...............:...............:...............:...............:...............:...............:...............:.
`.              `.              `.              `.              `.              `.              `.              `.              `.              `.              `.              
  `.              `.              `.              `.              `.              `.              `.              `.              `.              `.              `.            
    `.              `.              `.              `.              `.              `.              `.              `.              `.              `.              `.          
......:...............:...............:...............:...............:...............:...............:...............:...............:...............:...............:.........
        `.              `.              `.              `.              `.              `.              `.              `.              `.              `.              `.      
          `.              `.              `.              `.              `.              `.              `.              `.              `.              `.              `.    
            `.              `.              `.              `.              `.              `.              `.              `.              `.              `.              `.  
..............:...............:...............:...............:...............:...............:...............:...............:...............:...............:...............:.
`.              `.              `.              `.              `.              `.              `.              `.              `.              `.              `.              
  `.              `.              `.              `.              `.              `.              `.              `.              `.              `.              `.            
    `.              `.              `.              `.              `.              `.              `.              `.              `.              `.              `.          
......:...............:...............:...............:..............   ________________  ............:...............:...............:...............:...............:.........
        `.              `.              `.              `.             |`L_             `L_             `.              `.              `.              `.              `.      
          `.              `.              `.              `.           |  `L_             `L_             `.              `.              `.              `.              `.    
            `.              `.              `.              `.         |    `L_             `L_             `.              `.              `.              `.              `.  
..............:...............:...............:...............:......  |      `L_             `L_ ............:...............:...............:...............:...............:.
`.              `.              `.              `.              `.     |        `L_             `L_             `.              `.              `.              `.              
  `.              `.              `.              `.              `.   | L_       `L_             `L_             `.              `.              `.              `.            
    `.              `.              `.              `.              `  | |#L_       `L_             `L_             `.              `.              `.              `.          
......:...............:...............:...............:................L_|###L        `L______________:L  ............:...............:...............:...............:.........
        `.    __________________________________________________________:|###|         |:::::::::::::::|                `.              `.              `.              `.      
          `. (`.                                                             |   L_    |:::::::::::::::|  `.              `.              `.              `.              `.    
            `.`([:>:>:>:>:>:>:>:>:>:>:>:>:>:>:>:>:>:>:>:>:>:>:>:>:>:>:>:>:>:>L_  |#L_  |:::::::::::::::|    `.              `.              `.              `.              `.  
..............:.                                                              `L_|###L |:::::::::::::::|  ....:...............:...............:...............:...............:.
`.              `.    __________________________________________________________:|###| |:::::::::::::::|..............          `.              `.              `.              
  `.              `. (`.                                                             | |:::::::::::::::|                          `.              `.              `.            
    `.              `.`([:>:>:>:>:>:>:>:>:>:>:>:>:>:>:>:>:>:.   `:>:>:>:>:>:>:>:>:>:>|_|:::::::::::::::|>:>:>:>:>:>:>:>             `.              `.              `.          
......:...............:.                                    `>.   `L_                 `LLLLLLLLLLLLLLLL!  ............................:...............:...............:.........
        `.              `.                                    `>.   `L_                                                 `.              `.              `.              `.      
          `.              `.                                    `>.   `L_                                                 `.              `.              `.              `.    
            `.              `.                                    `>.   `L_                                                 `.              `.              `.              `.  
..............:...............:.                                    `>.   `L_.................................................:...............:...............:...............:.
`.              `.              `.    ________________________________:>.   `L_ `.              `.              `.              `.              `.              `.              
  `.              `.              `. (`.                                      `L  `.              `.              `.              `.              `.              `.            
    `.              `.              `.`([:<:<:<:<:<:<:<:<:<:<:<:<:<:<:<:<:<:<:<:]   `.              `.              `.              `.              `.              `.          
......:...............:...............:...............:...............:...............:...............:...............:...............:...............:...............:.........
        `.              `.              `.              `.              `.              `.              `.              `.              `.              `.              `.      
          `.              `.              `.              `.              `.              `.              `.              `.              `.              `.              `.    
            `.              `.              `.              `.              `.              `.              `.              `.              `.              `.              `.  
..............:...............:...............:...............:...............:...............:...............:...............:...............:...............:...............:.
                                                                                  
                                                                                        )                        
                                                                                     )                           
                                                                                    (   )                        
                                                                                                                 
                                                                                    (   )                          
                                                                                       (                           
                                                                                    (   )                          
                         ________________                                            )                             
                        |`.              `.                                         (   )                          
                        |  `.              `.                                       i:-:i                          
                        | .  `.              `.                                     | ¯ |                          
                        | |`.  `.______________:.                            _______|   |____                        
        ................! |  `. |               |                           |`.     |   |    `.                      
         `.------------- `!···| | .-----------. |------------.              |  `.   !._.!      `.                    
           `.o o o o o o   `. | | | o * 2 = 8 | | 8   8   8   `.            | .  `.  `-'         `.                  
             `.---------     `! | `-----------' |-----------. 8 `.          | |`.  `.              `.                
...............:...............:!_______________!            `.   `.        | |  `.  `.              `.              
 `.              `.              `.              `.             `. 8 `---------'···| .  `.              `.            
   `.              `.              `.              `.             `.   8   8   8   | |`.  `.______________:.          
     `.              `.              `.              `.             `--------------| |  `. |               |          
-------------------------------------------------------------------------------------'···| | .-----------. |         
// / / / / / / / / / / / / / / / / / / / / / / / / / / / / / / / / / / / / / / / / / / / | | | 8 + / = % | |         
-----------------------------------------------------------------------------------------! | `-----------' |      
                                                                                          `!_______________!      
                                                                                                                
                                                                                 
                                                                                 
                                                                                 
                                                                                 
                                                                                 
                                                                                 
                                                                                 
                                                                                 
                                                                                 
                                                                                 
                                                                                 
                                                                                 
                                                                                 
_________________________________________________________________________________
