                                                                                                                                                                                                                                                                                                                                                                                                                                    
                                                                                                                                                                                                                                                                                                                                                                                                                                    
                                                                                                                                                                                                                                                                                                                                                                                                                                    
                                                                                                                                                                                                                                                                                                                                                                                                                                    
                                                                                                                                                                                                                                                                                                                                                                                                                                    
                                                                                                                                                                                                                                                                                                                                                                                                                                    
                                                                                                                                                                                                                                                                                                                                                                                                                                    
                                                                                                                                                                                                                                                                                                                                                                                                                                    
                 ##############################################                                                                                                                                                                                                                                                                                                                                                                     
                 # o                                        o #                                                                                                                                                                                                                                                                                                                                                                     
##################             The adventures of              #                 +                                                                               +                   *                   +                   *                   +                   *                   +                   *                   +                   *                   +                   *                   +                   
##################                                            #                                                                                                                                                                                                                                                                                                                                                                     
##################   ####        ##  ## ###### #####  ##  ##  #                                                                                                                                                                                                                                                                                                                                                                     
##################  ##  ##       ##  ## ##     ##  ## ##  ##  #                                                                                                                                                                                                                                                                                                                                                                     
##################  ##▀▀##        #▄▄#  ##▀▀   ##▀▀▄▄  ▀##▀   #                                                                                                                                                                                                                                                                                                                                                                     
##################  ##  ##         ##   ###### ##  ##   ##    #                                                                                                                                                                                                                                                                                                                                                                     
##################                                            #                                                                                                                                                                                                                                                                                                                                                                     
##################  ######▄    ▄#####▄   ##         ######▄   #                                                                                                                                                                                                                                                                                                                                                                     
##################  ##    ##  ##▀   ▀##  ##         ##   ▀##  #                                                                                                                                                                                                                                                                                                                                                                     
##################  #######   ##     ##  ##         ##    ##  #                                                                                                                                                                                                                                                                                                                                                                     
##################  ##    ##  ##▄   ▄##  ##         ##   ▄##  #                 +                                                                               +                   +                   +                   +                   +                   +                   +                   +                                     #####                                   #####                                     
##################  ######▀    ▀#####▀   #########  ######▀   #                                                                                                                                                                                                                                                                                   #####                                   #####                                     
##################                                            #                                                                                                                                                                                                                                                                                   #####                                   #####                                     
##################    ▄#▄ # # ▄#▄ ##▄ ▄#▄ ▄#▄ ### ### ##▄     #                                                                                                                                                                                                                                                                                   #####                                   #####                                     
##################    # # # # # # # # # # # #  #  #   # #     #                                                                                                                                                                                                                                                                                   #####                                   #####                                     
##################    #   ### ### ##  ### #    #  ##  ##      #                                                                                                                                                                                                                                                                                   #####                                   #####                                     
##################    # # # # # # # # # # # #  #  #   # #     #                                                                                                                                                                                                                                                                                   #####                                   #####                                     
##################    ▀#▀ # # # # # # # # ▀#▀  #  ### # #     #                                                                                                                                                                                                                                                                                   #####                                   #####                                     
##################                                            #                                                                                                                                                                                                                                                                                   #####                                   #####                                     
##################            %                               #                                                                                                                                                                                                                                                                                   #############################################                                    
################## °                                        ° #                 +                                                                               +                   *                   +                                                                                                          .:::..                    /\   #############################################                                     
###############################################################                                                                                                                                                                                                              ..::.                            Unlock                        //\\  #############################################                                     
#####################                                                                                                                                                                                                                                                                             .:::..      the     ______________TT__    //\\  #############################################                                     
#####################                                                                                                                                                                                                                                        .......                                          door   /_-_-_-_-_-_-_-_-_-\   //\\  #############################################                                     
#####################                                                                                                                                                                                                            .::::.                ...:::::'''                                                  /-_-_-_-_-_-_-_-_-_-_\  //\\  #############################################                                     
#####################                                                                                                                                                                                                                                                               Don't fall                     /_-_-_-_-_-_-_-_-_-_-_-\ //\\  #####===================================#####                                     
#####################                                                                                                                                                                                                                                                                                               |                    |  //\\  #####||/                             \||#####                                     
#####################                                                                                                                                                                                                                     ...                              $  $    -|= $  $        $  $             |       ┌-┐ ┌-┐ ┌-┐  |   ||   #####||            The End            ||#####                                     
#####################                                                                                                                                                                                                                                                              =|-                              |       └-┘ └-┘ └-┘  |   ||   #####||            -------            ||#####                                     
#####################                                                                                                                                                                                                                                       .   .…   v  n        o. |       n .i…        ♠… .   …  o|  D01L  ……  … v  .i |::o|| o8#####||       More coming soon !      ||#####                                     
#####################                   +                                       +                   +                   +                   +                   +                   +                   +                                  $   ▕¯¯¯¯¯¯####################""""""######""""""######""""""###############################################|| $  $  $  $         $  $  $  $ ||##########################################
#####################                                                                                                                                                                                                                          ▕¯¯¯¯¯¯#◙##############◙### :    #◙####':    ######      ###############################################||                               ||##########################################
#####################                                                                                                                                                                                                              ..      $   ▕¯¯¯¯¯¯####################   :  ######    ' ######:     ###############################################||  §  §  §     D01L    §  §  §  ||##########################################
#####################                                                                                                                                                                                                                          ▕¯¯¯¯¯¯####################      ######      ######      ############################################################################################################################
#####################                                                                                                                                                                                                                      $   ▕¯¯¯¯¯¯########◘###########      ######  :.  ##◙###  .'  ####################◘#######################################################################################################
#####################                                                                                                                                                                                                                          ▕¯¯¯¯¯¯####################  :   ######      ######      ############################################################################################################################
#####################                                                                                                                                                                                                                      $   ▕¯¯¯¯¯¯####################.     ######      ######      ############################################################################################################################
#####################                                                                                                                                                                                                                          ▕¯¯¯¯¯¯####################      ######     '######      ####◙#######################################################################################################################
#####################                                                                                                                                                                                                                          ▕¯¯¯¯¯¯####################    . ###### :    ###### '    ################################◘######################## Support me on ####################################################
#####################                                                                                                                                                                                                                          ▕¯¯¯¯¯¯####################      ######   '  ######      #################################################### < ko-fi.com/adelfaure > ###############################################
#####################                                                                                                                                                                                                                          ▕¯¯¯¯¯¯####################      ######      ######      ############################################################################################################################
#####################                                                                                                                                                                                                                          ▕¯¯¯¯¯¯####################    : ######      ######   :   ###########################################################################################################################
#####################                                                                                                                                                                                                                 ↑        ▕¯¯¯¯¯¯####################      ######  :   ###◘##       ###########################################################################################################################
#####################                                                                                                                                                                                                                          ▕¯¯¯¯¯¯###################:      ######      ######       ###########################################################################################################################
#####################                                                                                                                                                                                                               Climb      ▕¯¯¯¯¯¯###################   :   ##◙###      #####:       ###########################################################################################################################
#####################                                                                                                                                                                                                                          ▕¯¯¯¯¯¯###################       ###### $  $ #####  '     ###########################################################################################################################
#####################                                                                                                                                                                                                                 ↓        ▕¯¯¯¯¯¯###################       ######      #####        ###########################################################################################################################
#####################                                                                                                                                                                                                                          ▕¯¯¯¯¯¯###################     : ###### $  $ #####        ###########################################################################################################################
#####################                                                                                                                                                                                          $                               ▕¯¯¯¯¯¯###################       ######      ##### :      ###########################################################################################################################
#####################                  Move                                 Everything                                 Jump                                  Collect                                 Interact       D00U                       ▕¯¯¯¯¯¯################◘## .     ###### $  $ #####        :##############   $ $ $ $ $   #############################################################################################
#####################                                                        will be                                                                                                                           $  ##############################¯¯¯¯¯¯###################       ######      #####         ▓▓▓▓▓▓▓▓▓▓▓▓▓▓     FREE      #############################################################################################
#####################                ←-    -→                                  fine                                     ↑                                       $                                       ↓         ##############################¯¯¯¯¯¯###################       ###### $  $ #####         ▓▓▓▓▓▓▓▓▓▓▓▓▓▓   PALESTINE   #############################################################################################
#####################                                                                                                                                                                                          $  ##############################¯¯¯¯¯¯###################       ######      #####    :    ############## § $ $ $ $ $ § #############################################################################################
#####################                                                                                                                                      $         $                                            ##############################¯¯¯¯¯¯###################  :.   ###### $  $ #####         ##########################################################################################################################
#####################                                                                                                                                         #####                                            $  ##############################¯¯¯¯¯¯###################       ######      #####     ·   ##########################################################################################################################
#####################                                                                                                                                 $       #####       $                                       ##############################¯¯¯¯¯¯###################       ###### $  $ ####◘         ##########################################################################################################################
#####################                                                                                                                                      ###########                                         $  ##############################¯¯¯¯¯¯###################       V#####      #####         ##########################################################################################################################
#####################                                                                                                                            $         ###########         $                       D00U       ##############################¯¯¯¯¯¯###################        #####  :   #####         ##########################################################################################################################
#####################                                                                                                   ########################################################################################################################¯¯¯¯¯¯###################    .   ###◙#      #####  :      ##########################################################################################################################
#####################                   @                                    §  §  §                                    ########################################################################################################################¯¯¯¯¯¯###################  :     #####      #####         ###################◙######################################################################################################
################################################################################################################################################################################################################################################¯¯¯¯¯¯###################        #####      #####    .    ##############################################################+###################*###################+##################*
################################################################################################################################################################################################################################################¯¯¯¯¯¯▏ V################        ####V      '####         V#########################################################################################################################
################################################################################################################################################################################################################################################¯¯¯¯¯¯▏ :   :###V\/:####'   :    '##:    .   V##:           VV #################################◙###################################################################################
################################################################################################################################################################################################################################################¯¯¯¯¯¯▏      V#      ##'          \/          VV     :          \  /################################################################################################################
###################################################################################################################################################################################################################################◙############¯¯¯¯¯¯▏       V  :    V       :                                : \/ V   ############################################################################################################
################################################################################################################################################################################################################################################¯¯¯¯¯¯▏                 .  :       Avoid traps        .                     ########################################################################################################
################################################################################################################################################################################################################################################¯¯¯¯¯¯▏                                                                        #####################################################################################################
################################################################################################################################################################################################################################################¯¯¯¯¯¯▏      .            .      $  $        $  $         :     Grab the key     ###################################################################################################
################################################################################################################################################################################################################################################¯¯¯¯¯¯▏            /\                                         .               ♪  ###################################################################################################
###############################################################################################################################################################################################################################▓▓▓▓▓▓▓▓▓▓▓▓▓▓▓▓▓¯¯¯¯¯¯▏…. … .o8….:/  \:n …  /\:.        ….o.          .o/\ .… . :     ##############################################################################################################
                                                                                                                                                                                                         ######################▓###########◙####################################:    .######.  :.:#############################################◙########################+#######################################+###################
                                                                                                                                                                                                         ######################▓################################################▲▲▲▲▲▲######▲▲▲▲▲▲##################################################################################################################################
                                                                                                                                                                                                         ######################▓########################◘#############################################################################◘#############################################################################################
                                                                                                                                                                                                         ######################▓####################################################################################################################################################################################################
                                                                                                                                                                                                         ######################▓####################################################################################################################################################################################################
                                                                                                                                                                                                         ######################▓####◙##############################################################◘################################################################################################################################
                                                                                                                                                                                                         ######################▓###########◘########################################################################################################################################################################################
                                                                                                                                                                                                         ######################▓##############################################◘#########################################◙###########################################################################################################
                                                                                                                                                                                                         ######################▓##################################################################◙#################################################################################################################################
                                                                                                                                                                                                         ######################▓##########################◙###################################################################################◘#####################################################################################
                                                                                                                                                                                                         ######################▓####################################################################################################################################################################################+###############
                                                                                                                                                                                                         ##################►▼▼▼ ▼▼▼▼▼▼▼▼▼▼▼▼▼▼▼▼▼▼▼▼▼▼▼▼▼▼▼▼▼▼▼▼▼▼▼▼◄###############################################################################################################################################################
                                                                                                                                                                                                         ##################►                                        ◄#######################################################################################################################◙#######################################
                                                                                                                                                                                                         ##################►                                        ◄###############################################################################################################################################################
                                                                                                                                                                                                         ##################►                                        ◄##########◙####################################################################################################################################################
                                                                                                                                                                                                         ##################►                                        ◄###############################################################################################################################################################
                                                                                                                                                                                                         ##################►         $          $           $       ◄###############################################################################################################################################################
                                                                                                                                                                                                         ##################►                                        ◄###############################################################################################################################################################
                                                                                                                                                                                                         ##################►   ## ## #  ### ### #  ### ###  #  ###  ◄###############################################################################################################################################################
                                                                                                                                                                                                         ##################►   # # # # #     #  # #    #  # # #     ◄######################################################################################################################◙########################+###############
                                                                                                                                                                                                         ##################►   #   # #  ##   #  # # ## ###  #  ##   ◄###############################################################################################################################################################
                                                                                                                                                                                                         ##################►   #   # #    #  #  # #  # #  # #    #  ◄###############################◘#############################################################################◘#################################################
                                                                                                                                                                                                         ##################►   #   # # ###   #  #  ##  #  # # ###   ◄###############################################################################################################################################################
                                                                                                                                                                                                         ##################►                                        ◄###############################################################################################################################################################
                                                                                                                                                                                                         ##################►                                        ◄###########◙##############################################################◘####################################################################################
                                                                                                                                                                                                         ##################►                                        ◄##################◘############################################################################################################################################
                                                                                                                                                                                                         ##################►                                        ◄#####################################################◘#########################################◙###############################################################
                                                                                                                                                                                                         ##################►                                        ◄#################################◙###################################################################################◘#########################################
                                                                                                                                                                                                         ##################►▲▲▲▲▲▲▲▲▲▲▲▲▲▲▲▲▲▲▲▲▲▲▲▲▲▲▲▲▲▲▲▲▲▲▲▲▲▲▲▲◄#####################################################◘#########################################◙###############################################################
                                                                                                                                                                                                         #############################################################################################◙###################################################################################◘#########################################
                                                                                                                                                                                                         ###########################################################################################################################################################################################################################
