/  _________   __________   __________   __________   _        _   __________  /
/ |___   ___| |  ________| |  ______  | |  ______  | | |      | | |  ________| /
/     | |     | |          | |______| | | |______| | | |      | | | |________  /
/     | |     | |          |  ______  | |  _____  _| | |      | | |________  | /
/  ___| |___  | |________. | |      | | | |     \ \  | |______| |  ________| | /
/ |_________| |__________| |_|      |_| |_|      \_\ |__________| |__________| /
                                                                                
              light   ..........._....\................                         
                      .../......| |.................... light                   
                      ..........\ |....................                         
                      ......__..| |..........\.........                         
   clouds             .....| |..| /....................                         
                      ..\...)|..\ |.........../........                         
                      ...../ |../ |....................                         
                      .....| \_.| | .....|.............                         
                      ......\  \|  \ ........-..|......                         
                      ....-..\      \.\../.............                         
                      ......\.`.     |..  .-...........                         
                      .../.../..\    \.||. ....\.......                         
                      .....||||.|)   .`._|||||../......                         
                      ...|.-----~        ~~--...__|||..                         
                      ..|/ .----...-)  /-----....__~-._          clouds         
       clouds         ._/.'........|   |............\_/                         
                      |_/ .........\ __!...............                         
                                                                                
                dark                           dark                             
/  _________   __________   ________     _        _  __       __               /
/ |  _____  | |  ________| |  _____ \   | |      | | \ \     / /               /
/ | |_____| | | |______    | |     \ \  | |      | |  \ \___/ /                /
/ |  ____  _| |  ______|   | |      ) ) | |      | |   ) ___ (       ???       /
/ | |    \ \  | |________. | |_____/ /  | |______| |  / /   \ \                /
/ |_|     \_\ |__________| |________/   |__________| /_/     \_\               /

____________.____________.____________..........................................
................................................................................
................................................................................
................................................................................
................................................................................
................................................................................
................................................................................
................................................................................
................................................................................
................................................................................
................................................................................
................................................................................
................................................................................
................................................................................
................................................................................
................................................................................
................................................................................
................................................................................
................................................................................
................................................................................
