 _____________________________________________________________________
i\                                                                   /i        
|░T-----------------------------------------------------------------T▒|        
|░|                             _______                             |▒|        
|░|                       .---((((((((((((---..                     |▒|        
|░|                     _-(((((((((((((((((((((((._                 |▒|        
|░|                  _-(((((((((((((((((((((((((((((.               |▒|        
|░|                .((((((((((((((((((((((((((((((((((.             |▒|        
|░|             .=((((((((((((((((((((((((((((((((((((((.           |▒|        
|░|            /(((((((((((((((((((((((((((((((((((((((((\          |▒|        
|░|           :(((((((((((((((((((((((((((((((((((((((((((\         |▒|        
|░|          :(((((((((((((((((((((((((((((((((((((((((((((\        |▒|        
|░|         :(((((((((((((((((((((((((/:((((((((((((((((((((\       |▒|        
|░|        :((((((((((((((((((((((((-' /((((.-' `((((((((((((\      |▒|        
|░|       :((((((((((((((((((((((-'  .'((-~      (((((((((((((\     |▒|        
|░|      .((((((((((((((((((-~   --:::'   _...._  \((((((((((((:    |▒|        
|░|      :(((((((((((((((((((:.         .:((((((:. \(((((((((((:    |▒|        
|░|      /((((((((((((:::~~~~:::       :::~~~~`::'  )((((((((((\    |▒|        
|░|     (((((((((((/'   .----.           .----.    /.(((((((((((:   |▒|        
|░|     ((((((((((/  .:'.-~~-.`.       .'.-~~-.`:.   )((((((((((:   |▒|        
|░|     ((((((((((\   \'((* ))~.       .~((* ))'/   /(((((((((((:   |▒|        
|░|     ((((((( :\/    `':._:.'  )   (  `.:_.:''   '\/:')(((((((    |▒|        
|░|    /(((((((\`:::                               .::'/((((((((\   |▒|        
|░|   ((((((((((\ `:.                              :' /((((((((((\  |▒|        
|░|    )(((((((((! ~.            .   .            .~ !((((((((((((: |▒|        
|░|   /(((((((((((`':           (.   .)           :`'((((((((((((/  |▒|        
|░|  ((((((((((((((((.          ' `Y' `          .((((((((((((((/   |▒|        
|░|   \(((((((((((((((\        .··.:.··.        /(((((((((((((((    |▒|        
|░|    )(((((((((((((((\      `.~··-··~.'      /((((((((((((((((\   |▒|        
|░|   /(((((((((((((((((`.      `~---~'      .'((((((((((((((((((:  |▒|        
|░|  ((((((((((((((((((((\`.               .'/((((((((((((((((((/   |▒|        
|░|   \((((((((((((((((((:  `.           .'  :((((((((((((((((((    |▒|        
|░|    \((((((((((((((((((\   `-._   _.-'/   !((((((((((((((((((:   |▒|        
|░|     \((((((((((((((((((\  |\::`~':::|   /:(((((((((((((((((/    |▒|        
|░|      )((((((((((((((((\    \:: ~':::|    :\~~--..(((((((((/     |▒|        
|░|     /((((((((((((((/(:( _    :`  :: |  /:: \ - - - ~~--((/      |▒|        
|░|    (((((((((((((((((((:(_\ \:  : :: //   :\ ) - - - - - ~-.     |▒|        
|░|  _-~\(((((((((((((((((((:  \        :    _.' - - - - - - - -    |▒|        
|░|-~- - --.(((((((((((((.-~`-._       - -_.'- - - - - - - - - - -  |▒|        
|░| - - - - -~-((((((-~'- - - - ~--....--~- - - - - - - - - - - - - |▒|        
|░|- - - - - - - `~- - - - - - - - - - - - - - - - - - - - - - - -  |▒|        
|░`-----------------------------------------------------------------'▒|        
|/▓▓▓▓▓▓▓▓▓▓▓▓▓▓▓▓▓▓▓▓▓▓▓▓▓▓▓▓▓▓▓▓▓▓▓▓▓▓▓▓▓▓▓▓▓▓▓▓▓▓▓▓▓▓▓▓▓▓▓▓▓▓▓▓▓▓▓\|
`~~~~~~~~~~~~~~~~~~~~~~~~~~~~~~~~~~~~~~~~~~~~~~~~~~~~~~~~~~~~~~~~~~~~~'
